{
  "login": {
    "success": {
      "token": "mock-jwt-token",
      "user": {
        "id": 1,
        "email": "john.doe@example.com",
        "first_name": "John",
        "last_name": "Doe",
        "avatar": "https://reqres.in/img/faces/1-image.jpg"
      }
    },
    "error": {
      "error": "Invalid credentials"
    }
  },
  "register": {
    "success": {
      "token": "mock-jwt-token-new",
      "user": {
        "id": 2,
        "email": "john.doe@example.com",
        "first_name": "John",
        "last_name": "Doe",
        "avatar": "https://reqres.in/img/faces/2-image.jpg"
      }
    },
    "error": {
      "error": "User already exists"
    }
  },
  "users": {
    "success": {
      "page": 1,
      "per_page": 6,
      "total": 12,
      "total_pages": 2,
      "data": [
        {
          "id": 1,
          "email": "george.bluth@reqres.in",
          "first_name": "George",
          "last_name": "Bluth",
          "avatar": "https://reqres.in/img/faces/1-image.jpg"
        },
        {
          "id": 2,
          "email": "janet.weaver@reqres.in",
          "first_name": "Janet",
          "last_name": "Weaver",
          "avatar": "https://reqres.in/img/faces/2-image.jpg"
        },
        {
          "id": 3,
          "email": "emma.wong@reqres.in",
          "first_name": "Emma",
          "last_name": "Wong",
          "avatar": "https://reqres.in/img/faces/3-image.jpg"
        },
        {
          "id": 4,
          "email": "eve.holt@reqres.in",
          "first_name": "Eve",
          "last_name": "Holt",
          "avatar": "https://reqres.in/img/faces/4-image.jpg"
        },
        {
          "id": 5,
          "email": "charles.morris@reqres.in",
          "first_name": "Charles",
          "last_name": "Morris",
          "avatar": "https://reqres.in/img/faces/5-image.jpg"
        },
        {
          "id": 6,
          "email": "tracey.ramos@reqres.in",
          "first_name": "Tracey",
          "last_name": "Ramos",
          "avatar": "https://reqres.in/img/faces/6-image.jpg"
        }
      ]
    },
    "empty": {
      "page": 1,
      "per_page": 6,
      "total": 0,
      "total_pages": 0,
      "data": []
    },
    "error": {
      "error": "Failed to fetch users"
    }
  },
  "createUser": {
    "success": {
      "id": 13,
      "email": "jane.smith@example.com",
      "first_name": "Jane",
      "last_name": "Smith",
      "avatar": "https://reqres.in/img/faces/13-image.jpg",
      "job": "Software Engineer",
      "createdAt": "2024-01-15T10:30:00.000Z"
    },
    "error": {
      "error": "Failed to create user"
    }
  },
  "updateUser": {
    "success": {
      "id": 1,
      "email": "george.updated@reqres.in",
      "first_name": "George",
      "last_name": "Updated",
      "avatar": "https://reqres.in/img/faces/1-image.jpg",
      "job": "Senior Engineer",
      "updatedAt": "2024-01-15T11:00:00.000Z"
    },
    "error": {
      "error": "Failed to update user"
    }
  },
  "deleteUser": {
    "success": {},
    "error": {
      "error": "Failed to delete user"
    }
  },
  "errors": {
    "validationError": {
      "error": "Validation failed",
      "details": {
        "email": "Email is required",
        "password": "Password must be at least 6 characters"
      }
    },
    "serverError": {
      "error": "Internal server error"
    },
    "notFound": {
      "error": "User not found"
    },
    "unauthorized": {
      "error": "Unauthorized access"
    }
  }
}
